…
**4. Your answer above doesn't tell the whole story since life expectancy varies by region. Make a summary that shows the min, mean, and max life expectancy by continent for all years represented in the data.**

```r
gapminder %>% 
  group_by(continent, year) %>% 
  summarize(min_lifeExp=min(lifeExp),
            max_lifeExp=max(lifeExp),
            avg_lifeExp=mean(lifeExp),
            .groups = 'keep')
```

```
## # A tibble: 60 x 5
## # Groups:   continent, year [60]
##    continent year  min_lifeExp max_lifeExp avg_lifeExp
##    <fct>     <fct>       <dbl>       <dbl>       <dbl>
##  1 Africa    1952         30          52.7        39.1
##  2 Africa    1957         31.6        58.1        41.3
##  3 Africa    1962         32.8        60.2        43.3
##  4 Africa    1967         34.1        61.6        45.3
##  5 Africa    1972         35.4        64.3        47.5
##  6 Africa    1977         36.8        67.1        49.6
##  7 Africa    1982         38.4        69.9        51.6
##  8 Africa    1987         39.9        71.9        53.3
##  9 Africa    1992         23.6        73.6        53.6
## 10 Africa    1997         36.1        74.8        53.6
## # ... with 50 more rows
```
…
