…
```r
#This shows the attendance rate for attendance month 1-5 (2019_1= 2019 academic year, month 1). This also includes the number of students enrolled and withdrawn from the middle school during the respective month. 
```


```r
att_ratestidy <- att_rates%>%
  pivot_longer(-academic_year, 
               names_to = "academic_year_values", 
               values_to = "student_numbers")
att_ratestidy
```

```
## # A tibble: 30 x 3
##    academic_year academic_year_values    student_numbers
##    <fct>         <chr>                             <dbl>
##  1 2019_1        attendance_rate_percent            96.0
##  2 2019_1        student_add                        22  
##  3 2019_1        student_drop                       12  
##  4 2019_2        attendance_rate_percent            96.4
##  5 2019_2        student_add                         8  
##  6 2019_2        student_drop                       22  
##  7 2019_3        attendance_rate_percent            95  
##  8 2019_3        student_add                        15  
##  9 2019_3        student_drop                       13  
## 10 2019_4        attendance_rate_percent            93.7
## # ... with 20 more rows
```
…
```r
term_gpa <- janitor::clean_names(term_gpa)
term_gpa
```

```
## # A tibble: 1,888 x 4
##     year grade term_1 term_2
##    <dbl> <chr> <chr>  <chr> 
##  1  2019 8     <NA>   2.286 
##  2  2019 7     4      4     
##  3  2019 6     2.429  2.429 
##  4  2019 8     3.143  3.286 
##  5  2019 6     3.286  3.143 
##  6  2019 7     3.714  3.714 
##  7  2019 7     3.714  4     
##  8  2019 6     1.857  1.571 
##  9  2019 7     2.286  2     
## 10  2019 6     3.571  3.714 
## # ... with 1,878 more rows
```





```r
term_2_gpa <- term_gpa%>%
  select(year, grade, term_2)%>%
  filter(grade!="Grade")
term_2_gpa
```

```
## # A tibble: 1,887 x 3
##     year grade term_2
##    <dbl> <chr> <chr> 
##  1  2019 8     2.286 
##  2  2019 7     4     
##  3  2019 6     2.429 
##  4  2019 8     3.286 
##  5  2019 6     3.143 
##  6  2019 7     3.714 
##  7  2019 7     4     
##  8  2019 6     1.571 
##  9  2019 7     2     
## 10  2019 6     3.714 
## # ... with 1,877 more rows
```
…
