…
```r
gpa19 <- janitor::clean_names(gpa19)
gpa19$grade <- as.factor(gpa19$grade)
gpa19
```

```
## # A tibble: 952 x 3
##    grade term_1 term_2
##    <fct>  <dbl>  <dbl>
##  1 8      NA      2.29
##  2 7       4      4   
##  3 6       2.43   2.43
##  4 8       3.14   3.29
##  5 6       3.29   3.14
##  6 7       3.71   3.71
##  7 7       3.71   4   
##  8 6       1.86   1.57
##  9 7       2.29   2   
## 10 6       3.57   3.71
## # ... with 942 more rows
```
…
```r
eightgpa_19 <- term_2_19%>%
  filter(grade=="8")%>%
  group_by(term_2)%>%
  summarise(totaln=n())
eightgpa_19
```

```
## # A tibble: 27 x 2
##    term_2 totaln
##  *  <dbl>  <int>
##  1  0.429      1
##  2  0.571      2
##  3  0.714      1
##  4  1          4
##  5  1.14       2
##  6  1.29       5
##  7  1.43       9
##  8  1.57      10
##  9  1.71      10
## 10  1.86       9
## # ... with 17 more rows
```


```r
sevengpa_19 <- term_2_19%>%
  filter(grade=="7")%>%
  group_by(term_2)%>%
  summarise(totaln=n())
sevengpa_19
```

```
## # A tibble: 25 x 2
##    term_2 totaln
##  *  <dbl>  <int>
##  1  0.714      1
##  2  0.857      3
##  3  1.14       2
##  4  1.29       4
##  5  1.43       3
##  6  1.57       5
##  7  1.71      10
##  8  1.86       9
##  9  2          8
## 10  2.14      17
## # ... with 15 more rows
```

```r
sixgpa_19 <- term_2_19%>%
  filter(grade=="6")%>%
  group_by(term_2)%>%
  summarise(totaln=n())
sixgpa_19
```

```
## # A tibble: 25 x 2
##    term_2 totaln
##  *  <dbl>  <int>
##  1  0.571      2
##  2  0.857      1
##  3  1          4
##  4  1.29       1
##  5  1.43       2
##  6  1.57      11
##  7  1.71       5
##  8  1.86      12
##  9  2         16
## 10  2.14      13
## # ... with 15 more rows
```
…
```r
gpa20 <- janitor::clean_names(gpa20)
gpa20$grade <- as.factor(gpa20$grade)
gpa20
```

```
## # A tibble: 935 x 3
##    grade term_1 term_2
##    <fct>  <dbl>  <dbl>
##  1 8      3.83   4    
##  2 6      2.29   2.57 
##  3 7      1      0.833
##  4 7      1.14   1.29 
##  5 8      2.33   2    
##  6 8      3      3.57 
##  7 7      1.29   1.29 
##  8 8      0.571  1.14 
##  9 6      3.57   3.43 
## 10 7      2.83   3.14 
## # ... with 925 more rows
```
…
```r
gpabyyear19 <- term_2_19%>%
  group_by(term_2)%>%
  summarise(totaln=n())
gpabyyear19
```

```
## # A tibble: 30 x 2
##    term_2 totaln
##  *  <dbl>  <int>
##  1  0.429      1
##  2  0.571      4
##  3  0.714      2
##  4  0.857      4
##  5  1          8
##  6  1.14       4
##  7  1.29      10
##  8  1.43      14
##  9  1.57      26
## 10  1.71      25
## # ... with 20 more rows
```



```r
gpabyyear20 <- term_2_20%>%
  group_by(term_2)%>%
  summarise(totaln=n())
gpabyyear20
```

```
## # A tibble: 45 x 2
##    term_2 totaln
##  *  <dbl>  <int>
##  1  0          4
##  2  0.143      3
##  3  0.167      2
##  4  0.2        1
##  5  0.286      5
##  6  0.333      3
##  7  0.4        2
##  8  0.429      9
##  9  0.5        2
## 10  0.571     17
## # ... with 35 more rows
```





```r
eightgpa_20 <- term_2_20%>%
  filter(grade=="8")%>%
  group_by(term_2)%>%
  summarise(totaln=n())
eightgpa_20
```

```
## # A tibble: 37 x 2
##    term_2 totaln
##  *  <dbl>  <int>
##  1  0          1
##  2  0.143      1
##  3  0.286      4
##  4  0.333      1
##  5  0.429      2
##  6  0.5        1
##  7  0.571      8
##  8  0.6        1
##  9  0.714      8
## 10  0.857      9
## # ... with 27 more rows
```




```r
sevengpa_20 <- term_2_20%>%
  filter(grade=="7")%>%
  group_by(term_2)%>%
  summarise(totaln=n())
sevengpa_20
```

```
## # A tibble: 35 x 2
##    term_2 totaln
##  *  <dbl>  <int>
##  1  0          2
##  2  0.143      1
##  3  0.167      1
##  4  0.286      1
##  5  0.333      2
##  6  0.4        1
##  7  0.429      6
##  8  0.571      5
##  9  0.667      2
## 10  0.714      4
## # ... with 25 more rows
```



```r
sixgpa_20 <- term_2_20%>%
  filter(grade=="6")%>%
  group_by(term_2)%>%
  summarise(totaln=n())
sixgpa_20
```

```
## # A tibble: 38 x 2
##    term_2 totaln
##  *  <dbl>  <int>
##  1  0          1
##  2  0.143      1
##  3  0.167      1
##  4  0.2        1
##  5  0.4        1
##  6  0.429      1
##  7  0.5        1
##  8  0.571      4
##  9  0.714      3
## 10  0.8        2
## # ... with 28 more rows
```
…
