…
**4. (2 points) Change the names of the variables to lower case and change the class of the variable `sex` to a factor.**


```r
elephants<- janitor::clean_names(elephants)
elephants$sex<- as.factor(elephants$sex)
elephants
```

```
## # A tibble: 288 x 3
##      age height sex  
##    <dbl>  <dbl> <fct>
##  1   1.4   120  M    
##  2  17.5   227  M    
##  3  12.8   235  M    
##  4  11.2   210  M    
##  5  12.7   220  M    
##  6  12.7   189  M    
##  7  12.2   225  M    
##  8  12.2   204  M    
##  9  28.2   266. M    
## 10  11.7   233  M    
## # ... with 278 more rows
```
…
```r
gabon_data <- janitor::clean_names(gabon_data)
gabon_data$hunt_cat <- as.factor(gabon_data$hunt_cat)
gabon_data$land_use <- as.factor(gabon_data$land_use)
gabon_data
```

```
## # A tibble: 24 x 26
##    transect_id distance hunt_cat num_households land_use veg_rich veg_stems
##          <dbl>    <dbl> <fct>             <dbl> <fct>       <dbl>     <dbl>
##  1           1     7.14 Moderate             54 Park         16.7      31.2
##  2           2    17.3  None                 54 Park         15.8      37.4
##  3           2    18.3  None                 29 Park         16.9      32.3
##  4           3    20.8  None                 29 Logging      12.4      29.4
##  5           4    16.0  None                 29 Park         17.1      36  
##  6           5    17.5  None                 29 Park         16.5      29.2
##  7           6    24.1  None                 29 Park         14.8      31.2
##  8           7    19.8  None                 54 Logging      13.2      32.6
##  9           8     5.78 High                 25 Neither      12.6      23.7
## 10           9     5.13 High                 73 Logging      16        27.1
## # ... with 14 more rows, and 19 more variables: veg_liana <dbl>, veg_dbh <dbl>,
## #   veg_canopy <dbl>, veg_understory <dbl>, ra_apes <dbl>, ra_birds <dbl>,
## #   ra_elephant <dbl>, ra_monkeys <dbl>, ra_rodent <dbl>, ra_ungulate <dbl>,
## #   rich_all_species <dbl>, evenness_all_species <dbl>,
## #   diversity_all_species <dbl>, rich_bird_species <dbl>,
## #   evenness_bird_species <dbl>, diversity_bird_species <dbl>,
## #   rich_mammal_species <dbl>, evenness_mammal_species <dbl>,
## #   diversity_mammal_species <dbl>
```
…
