…
2. Which cities in California have the highest number of colleges?

```r
colleges %>% 
  count(city, stabbr, sort = T) %>% 
  group_by(city) 
```

```
## # A tibble: 161 x 3
## # Groups:   city [161]
##    city          stabbr     n
##    <chr>         <chr>  <int>
##  1 Los Angeles   CA        24
##  2 San Diego     CA        18
##  3 San Francisco CA        15
##  4 Sacramento    CA        10
##  5 Berkeley      CA         9
##  6 Oakland       CA         9
##  7 Claremont     CA         7
##  8 Pasadena      CA         6
##  9 Fresno        CA         5
## 10 Irvine        CA         5
## # ... with 151 more rows
```
…
4. The column `COSTT4_A` is the annual cost of each institution. Which city has the highest average cost? Where is it located?

```r
colleges %>% 
  group_by(city, stabbr) %>% 
  summarize(avg_cost=mean(costt4_a, na.rm = T),
            .groups = 'keep') %>% 
  arrange(desc(avg_cost))
```

```
## # A tibble: 161 x 3
## # Groups:   city, stabbr [161]
##    city                stabbr avg_cost
##    <chr>               <chr>     <dbl>
##  1 Claremont           CA        66498
##  2 Malibu              CA        66152
##  3 Valencia            CA        64686
##  4 Orange              CA        64501
##  5 Redlands            CA        61542
##  6 Moraga              CA        61095
##  7 Atherton            CA        56035
##  8 Thousand Oaks       CA        54373
##  9 Rancho Palos Verdes CA        50758
## 10 La Verne            CA        50603
## # ... with 151 more rows
```
…
