…
```
##  [1] "name"       "Gender"     "Eye color"  "Race"       "Hair color"
##  [6] "Height"     "Publisher"  "Skin color" "Alignment"  "Weight"
```

```r
superhero_info <- rename(superhero_info, eye_color="Eye color", hair_color="Hair color", skin_color="Skin color")
superhero_info
```

```
## # A tibble: 734 x 10
##    name  Gender eye_color Race  hair_color Height Publisher skin_color Alignment
##    <chr> <chr>  <chr>     <chr> <chr>       <dbl> <chr>     <chr>      <chr>    
##  1 A-Bo~ Male   yellow    Human No Hair       203 Marvel C~ <NA>       good     
##  2 Abe ~ Male   blue      Icth~ No Hair       191 Dark Hor~ blue       good     
##  3 Abin~ Male   blue      Unga~ No Hair       185 DC Comics red        good     
##  4 Abom~ Male   green     Huma~ No Hair       203 Marvel C~ <NA>       bad      
##  5 Abra~ Male   blue      Cosm~ Black          NA Marvel C~ <NA>       bad      
##  6 Abso~ Male   blue      Human No Hair       193 Marvel C~ <NA>       bad      
##  7 Adam~ Male   blue      <NA>  Blond          NA NBC - He~ <NA>       good     
##  8 Adam~ Male   blue      Human Blond         185 DC Comics <NA>       good     
##  9 Agen~ Female blue      <NA>  Blond         173 Marvel C~ <NA>       good     
## 10 Agen~ Male   brown     Human Brown         178 Marvel C~ <NA>       good     
## # ... with 724 more rows, and 1 more variable: Weight <dbl>
```

```r
superhero_info <- select_all(superhero_info, tolower)
superhero_info
```

```
## # A tibble: 734 x 10
##    name  gender eye_color race  hair_color height publisher skin_color alignment
##    <chr> <chr>  <chr>     <chr> <chr>       <dbl> <chr>     <chr>      <chr>    
##  1 A-Bo~ Male   yellow    Human No Hair       203 Marvel C~ <NA>       good     
##  2 Abe ~ Male   blue      Icth~ No Hair       191 Dark Hor~ blue       good     
##  3 Abin~ Male   blue      Unga~ No Hair       185 DC Comics red        good     
##  4 Abom~ Male   green     Huma~ No Hair       203 Marvel C~ <NA>       bad      
##  5 Abra~ Male   blue      Cosm~ Black          NA Marvel C~ <NA>       bad      
##  6 Abso~ Male   blue      Human No Hair       193 Marvel C~ <NA>       bad      
##  7 Adam~ Male   blue      <NA>  Blond          NA NBC - He~ <NA>       good     
##  8 Adam~ Male   blue      Human Blond         185 DC Comics <NA>       good     
##  9 Agen~ Female blue      <NA>  Blond         173 Marvel C~ <NA>       good     
## 10 Agen~ Male   brown     Human Brown         178 Marvel C~ <NA>       good     
## # ... with 724 more rows, and 1 more variable: weight <dbl>
```
…
```
## The following objects are masked from 'package:stats':
## 
##     chisq.test, fisher.test
```

The `clean_names` function takes care of everything in one line! Now that's a superpower!

```r
superhero_powers <- janitor::clean_names(superhero_powers)
superhero_powers
```

```
## # A tibble: 667 x 168
##    hero_names agility accelerated_hea~ lantern_power_r~ dimensional_awa~
##    <chr>      <lgl>   <lgl>            <lgl>            <lgl>           
##  1 3-D Man    TRUE    FALSE            FALSE            FALSE           
##  2 A-Bomb     FALSE   TRUE             FALSE            FALSE           
##  3 Abe Sapien TRUE    TRUE             FALSE            FALSE           
##  4 Abin Sur   FALSE   FALSE            TRUE             FALSE           
##  5 Abominati~ FALSE   TRUE             FALSE            FALSE           
##  6 Abraxas    FALSE   FALSE            FALSE            TRUE            
##  7 Absorbing~ FALSE   FALSE            FALSE            FALSE           
##  8 Adam Monr~ FALSE   TRUE             FALSE            FALSE           
##  9 Adam Stra~ FALSE   FALSE            FALSE            FALSE           
## 10 Agent Bob  FALSE   FALSE            FALSE            FALSE           
## # ... with 657 more rows, and 163 more variables: cold_resistance <lgl>,
## #   durability <lgl>, stealth <lgl>, energy_absorption <lgl>, flight <lgl>,
## #   danger_sense <lgl>, underwater_breathing <lgl>, marksmanship <lgl>,
## #   weapons_master <lgl>, power_augmentation <lgl>, animal_attributes <lgl>,
## #   longevity <lgl>, intelligence <lgl>, super_strength <lgl>,
## #   cryokinesis <lgl>, telepathy <lgl>, energy_armor <lgl>,
## #   energy_blasts <lgl>, duplication <lgl>, size_changing <lgl>,
## #   density_control <lgl>, stamina <lgl>, astral_travel <lgl>,
## #   audio_control <lgl>, dexterity <lgl>, omnitrix <lgl>, super_speed <lgl>,
…
2. Notice that we have some neutral superheros! Who are they?

```r
neutrals <- filter(superhero_info, alignment== "neutral")
neutrals
```

```
## # A tibble: 24 x 10
##    name  gender eye_color race  hair_color height publisher skin_color alignment
##    <chr> <chr>  <chr>     <chr> <chr>       <dbl> <chr>     <chr>      <chr>    
##  1 Biza~ Male   black     Biza~ Black         191 DC Comics white      neutral  
##  2 Blac~ Male   <NA>      God ~ <NA>           NA DC Comics <NA>       neutral  
##  3 Capt~ Male   brown     Human Brown          NA DC Comics <NA>       neutral  
##  4 Copy~ Female red       Muta~ White         183 Marvel C~ blue       neutral  
##  5 Dead~ Male   brown     Muta~ No Hair       188 Marvel C~ <NA>       neutral  
##  6 Deat~ Male   blue      Human White         193 DC Comics <NA>       neutral  
##  7 Etri~ Male   red       Demon No Hair       193 DC Comics yellow     neutral  
##  8 Gala~ Male   black     Cosm~ Black         876 Marvel C~ <NA>       neutral  
##  9 Glad~ Male   blue      Stro~ Blue          198 Marvel C~ purple     neutral  
## 10 Indi~ Female <NA>      Alien Purple         NA DC Comics <NA>       neutral  
## # ... with 14 more rows, and 1 more variable: weight <dbl>
```

## `superhero_info`
3. Let's say we are only interested in the variables name, alignment, and "race". How would you isolate these variables from `superhero_info`?

```r
superhero_info%>%
  select(name, alignment, race)
```

```
## # A tibble: 734 x 3
##    name          alignment race             
##    <chr>         <chr>     <chr>            
##  1 A-Bomb        good      Human            
##  2 Abe Sapien    good      Icthyo Sapien    
##  3 Abin Sur      good      Ungaran          
##  4 Abomination   bad       Human / Radiation
##  5 Abraxas       bad       Cosmic Entity    
##  6 Absorbing Man bad       Human            
##  7 Adam Monroe   good      <NA>             
##  8 Adam Strange  good      Human            
##  9 Agent 13      good      <NA>             
## 10 Agent Bob     good      Human            
## # ... with 724 more rows
```

## Not Human
4. List all of the superheros that are not human.

```r
nonhuman_heroes <- superhero_info%>%
  filter(race != "Human")
nonhuman_heroes
```

```
## # A tibble: 222 x 10
##    name  gender eye_color race  hair_color height publisher skin_color alignment
##    <chr> <chr>  <chr>     <chr> <chr>       <dbl> <chr>     <chr>      <chr>    
##  1 Abe ~ Male   blue      Icth~ No Hair       191 Dark Hor~ blue       good     
##  2 Abin~ Male   blue      Unga~ No Hair       185 DC Comics red        good     
##  3 Abom~ Male   green     Huma~ No Hair       203 Marvel C~ <NA>       bad      
##  4 Abra~ Male   blue      Cosm~ Black          NA Marvel C~ <NA>       bad      
##  5 Ajax  Male   brown     Cybo~ Black         193 Marvel C~ <NA>       bad      
##  6 Alien Male   <NA>      Xeno~ No Hair       244 Dark Hor~ black      bad      
##  7 Amazo Male   red       Andr~ <NA>          257 DC Comics <NA>       bad      
##  8 Angel Male   <NA>      Vamp~ <NA>           NA Dark Hor~ <NA>       good     
##  9 Ange~ Female yellow    Muta~ Black         165 Marvel C~ <NA>       good     
## 10 Anti~ Male   yellow    God ~ No Hair        61 DC Comics <NA>       bad      
## # ... with 212 more rows, and 1 more variable: weight <dbl>
```

## Good and Evil
5. Let's make two different data frames, one focused on the "good guys" and another focused on the "bad guys".

```r
good_guys <- superhero_info%>%
  filter(alignment == "good")
good_guys
```

```
## # A tibble: 496 x 10
##    name  gender eye_color race  hair_color height publisher skin_color alignment
##    <chr> <chr>  <chr>     <chr> <chr>       <dbl> <chr>     <chr>      <chr>    
##  1 A-Bo~ Male   yellow    Human No Hair       203 Marvel C~ <NA>       good     
##  2 Abe ~ Male   blue      Icth~ No Hair       191 Dark Hor~ blue       good     
##  3 Abin~ Male   blue      Unga~ No Hair       185 DC Comics red        good     
##  4 Adam~ Male   blue      <NA>  Blond          NA NBC - He~ <NA>       good     
##  5 Adam~ Male   blue      Human Blond         185 DC Comics <NA>       good     
##  6 Agen~ Female blue      <NA>  Blond         173 Marvel C~ <NA>       good     
##  7 Agen~ Male   brown     Human Brown         178 Marvel C~ <NA>       good     
##  8 Agen~ Male   <NA>      <NA>  <NA>          191 Marvel C~ <NA>       good     
##  9 Alan~ Male   blue      <NA>  Blond         180 DC Comics <NA>       good     
## 10 Alex~ Male   <NA>      <NA>  <NA>           NA NBC - He~ <NA>       good     
## # ... with 486 more rows, and 1 more variable: weight <dbl>
```

```r
bad_guys <- superhero_info%>% 
  filter(alignment == "bad")
bad_guys
```

```
## # A tibble: 207 x 10
##    name  gender eye_color race  hair_color height publisher skin_color alignment
##    <chr> <chr>  <chr>     <chr> <chr>       <dbl> <chr>     <chr>      <chr>    
##  1 Abom~ Male   green     Huma~ No Hair       203 Marvel C~ <NA>       bad      
##  2 Abra~ Male   blue      Cosm~ Black          NA Marvel C~ <NA>       bad      
##  3 Abso~ Male   blue      Human No Hair       193 Marvel C~ <NA>       bad      
##  4 Air-~ Male   blue      <NA>  White         188 Marvel C~ <NA>       bad      
##  5 Ajax  Male   brown     Cybo~ Black         193 Marvel C~ <NA>       bad      
##  6 Alex~ Male   <NA>      Human <NA>           NA Wildstorm <NA>       bad      
##  7 Alien Male   <NA>      Xeno~ No Hair       244 Dark Hor~ black      bad      
##  8 Amazo Male   red       Andr~ <NA>          257 DC Comics <NA>       bad      
##  9 Ammo  Male   brown     Human Black         188 Marvel C~ <NA>       bad      
## 10 Ange~ Female <NA>      <NA>  <NA>           NA Image Co~ <NA>       bad      
## # ... with 197 more rows, and 1 more variable: weight <dbl>
```
…
8. Among the bad guys, who are the male humans over 200 inches in height?

```r
bad_guys %>%
  select(gender, height, name) %>%
  filter(gender== "Male"& height>= 200.0)
```

```
## # A tibble: 22 x 3
##    gender height name          
##    <chr>   <dbl> <chr>         
##  1 Male      203 Abomination   
##  2 Male      244 Alien         
##  3 Male      257 Amazo         
##  4 Male      213 Apocalypse    
##  5 Male      203 Bane          
##  6 Male      267 Darkseid      
##  7 Male      201 Doctor Doom   
##  8 Male      201 Doctor Doom II
##  9 Male      244 Doomsday      
## 10 Male      244 Killer Croc   
## # ... with 12 more rows
```

9. OK, so are there more good guys or bad guys that are bald (personal interest)?

```r
good_guys %>%
  select(name, hair_color) %>%
  filter(hair_color == "No Hair")
```

```
## # A tibble: 37 x 2
##    name            hair_color
##    <chr>           <chr>     
##  1 A-Bomb          No Hair   
##  2 Abe Sapien      No Hair   
##  3 Abin Sur        No Hair   
##  4 Beta Ray Bill   No Hair   
##  5 Bishop          No Hair   
##  6 Black Lightning No Hair   
##  7 Blaquesmith     No Hair   
##  8 Bloodhawk       No Hair   
##  9 Crimson Dynamo  No Hair   
## 10 Donatello       No Hair   
## # ... with 27 more rows
```

```r
bad_guys %>%
  select(name, hair_color) %>%
  filter(hair_color == "No Hair")
```

```
## # A tibble: 35 x 2
##    name          hair_color
##    <chr>         <chr>     
##  1 Abomination   No Hair   
##  2 Absorbing Man No Hair   
##  3 Alien         No Hair   
##  4 Annihilus     No Hair   
##  5 Anti-Monitor  No Hair   
##  6 Black Manta   No Hair   
##  7 Bloodwraith   No Hair   
##  8 Brainiac      No Hair   
##  9 Darkseid      No Hair   
## 10 Darth Vader   No Hair   
## # ... with 25 more rows
```


There are more good guys that are bald than there are bad guys that are bald. 

10. Let's explore who the really "big" superheros are. In the `superhero_info` data, which have a height over 200 or weight over 300?

```r
big <- superhero_info%>%
  select(name, height, weight)%>%
  filter(height >= 200 | weight >= 300)
big
```

```
## # A tibble: 65 x 3
##    name          height weight
##    <chr>          <dbl>  <dbl>
##  1 A-Bomb           203    441
##  2 Abomination      203    441
##  3 Alien            244    169
##  4 Amazo            257    173
##  5 Ant-Man          211    122
##  6 Anti-Venom       229    358
##  7 Apocalypse       213    135
##  8 Bane             203    180
##  9 Beta Ray Bill    201    216
## 10 Bloodaxe         218    495
## # ... with 55 more rows
```
…
## Height to Weight Ratio
13. It's easy to be strong when you are heavy and tall, but who is heavy and short? Which superheros have the highest height to weight ratio?

```r
height_to_weight <- superhero_info%>%
  mutate(height_weight_ratio=height/weight)%>%
  select(name, height_weight_ratio)%>%
  arrange(height_weight_ratio)
height_to_weight
```

```
## # A tibble: 734 x 2
##    name        height_weight_ratio
##    <chr>                     <dbl>
##  1 Giganta                  0.0992
##  2 Utgard-Loki              0.262 
##  3 Darkseid                 0.327 
##  4 Juggernaut               0.336 
##  5 Red Hulk                 0.338 
##  6 Sasquatch                0.339 
##  7 Hulk                     0.387 
##  8 Bloodaxe                 0.440 
##  9 Thanos                   0.454 
## 10 A-Bomb                   0.460 
## # ... with 724 more rows
```
…
14. How many superheros have a combination of accelerated healing, durability, and super strength?


```r
combo <- superhero_powers%>%
  select(hero_names, accelerated_healing, durability, super_strength)%>%
  filter(accelerated_healing==TRUE, durability==TRUE, super_strength==TRUE)
combo
```

```
## # A tibble: 97 x 4
##    hero_names   accelerated_healing durability super_strength
##    <chr>        <lgl>               <lgl>      <lgl>         
##  1 A-Bomb       TRUE                TRUE       TRUE          
##  2 Abe Sapien   TRUE                TRUE       TRUE          
##  3 Angel        TRUE                TRUE       TRUE          
##  4 Anti-Monitor TRUE                TRUE       TRUE          
##  5 Anti-Venom   TRUE                TRUE       TRUE          
##  6 Aquaman      TRUE                TRUE       TRUE          
##  7 Arachne      TRUE                TRUE       TRUE          
##  8 Archangel    TRUE                TRUE       TRUE          
##  9 Ardina       TRUE                TRUE       TRUE          
## 10 Ares         TRUE                TRUE       TRUE          
## # ... with 87 more rows
```

## `kinesis`
15. We are only interested in the superheros that do some kind of "kinesis". How would we isolate them from the `superhero_powers` data?

```r
kinesis_powers <- superhero_powers%>%
  select(hero_names, ends_with("kinesis"))
kinesis_powers
```

```
## # A tibble: 667 x 10
##    hero_names cryokinesis electrokinesis telekinesis hyperkinesis hypnokinesis
##    <chr>      <lgl>       <lgl>          <lgl>       <lgl>        <lgl>       
##  1 3-D Man    FALSE       FALSE          FALSE       FALSE        FALSE       
##  2 A-Bomb     FALSE       FALSE          FALSE       FALSE        FALSE       
##  3 Abe Sapien FALSE       FALSE          FALSE       FALSE        FALSE       
##  4 Abin Sur   FALSE       FALSE          FALSE       FALSE        FALSE       
##  5 Abominati~ FALSE       FALSE          FALSE       FALSE        FALSE       
##  6 Abraxas    FALSE       FALSE          FALSE       FALSE        FALSE       
##  7 Absorbing~ FALSE       FALSE          FALSE       FALSE        FALSE       
##  8 Adam Monr~ FALSE       FALSE          FALSE       FALSE        FALSE       
##  9 Adam Stra~ FALSE       FALSE          FALSE       FALSE        FALSE       
## 10 Agent Bob  FALSE       FALSE          FALSE       FALSE        FALSE       
## # ... with 657 more rows, and 4 more variables: thirstokinesis <lgl>,
## #   biokinesis <lgl>, terrakinesis <lgl>, vitakinesis <lgl>
```
…
